[
  {
    "id": 1,
    "label": "Quick Links",
    "title": "Quick Links",
    "uaqs_links": [
    {
      "url": "http://www.arizona.edu/about/contact-us",
      "title": "Contact Us",
      "attributes":
      {
        "class": "list-group-item"
      }
    },
    {
      "url": "http://www.arizona.edu",
      "title": "Arizona Home Page",
      "attributes":
      {
        "class": "list-group-item btn-arrow"
      }
    },
    {
      "url": "https://uanews.arizona.edu",
      "title": "UANews",
      "attributes":
      {
        "class": "list-group-item"
      }
    },
    {
      "url": "content/flexible-page-people-grid",
      "title": "Leadership Team",
      "attributes":
      {
        "class": "list-group-item"
      }
    }],
    "region": "content_2_col_1",
    "visibility": 1,
    "pages": "uaqs_block_types",
    "weight": 2
  },
  {
    "id": 2,
    "label": "Related",
    "title": "Related",
    "uaqs_links": [
    {
      "url": "http://www.arizona.edu/about/contact-us",
      "title": "Contact Us",
      "attributes":
      {
        "class": "list-group-item"
      }
    },
    {
      "url": "content/flexible-page-people-grid",
      "title": "Leadership Team",
      "attributes":
      {
        "class": "list-group-item"
      }
    }],
    "region": "sidebar_second",
    "visibility": 1,
    "pages": "person/*",
    "weight": 1
  }
]