[
  {"mlid":58,
    "parent_id" : 0,
    "menu_name" : "uaqs-header-resources",
    "link_path" : "http://map.arizona.edu/",
    "link_title" : "Campus Map",
    "external" : 1,
    "expanded" : 0,
    "weight" : 0
  },
  {"mlid":67,
    "parent_id" : 0,
    "menu_name" : "uaqs-header-resources",
    "link_path" : "http://uaccess.arizona.edu",
    "link_title" : "UAccess",
    "external" : 1,
    "expanded" : 0,
    "weight" : 1
  },
  {"mlid":59,
    "parent_id" : 0,
    "menu_name" : "uaqs-header-resources",
    "link_path" : "https://directory.arizona.edu/index",
    "link_title" : "A-Z",
    "external" : 1,
    "expanded" : 0,
    "weight" : 2
  },
  {"mlid":60,
    "parent_id" : 0,
    "menu_name" : "uaqs-header-resources",
    "link_path" : "https://directory.arizona.edu/phonebook",
    "link_title" : "Directory / Phonebook",
    "external" : 1,
    "expanded" : 0,
    "weight" : 3
  },
  {"mlid":61,
    "parent_id" : 0,
    "menu_name" : "uaqs-header-resources",
    "link_path" : "https://slate.admissions.arizona.edu/account/login",
    "link_title" : "UA Future",
    "external" : 1,
    "expanded" : 0,
    "weight" : 4
  },
  {"mlid":62,
    "parent_id" : 0,
    "menu_name" : "uaqs-header-resources",
    "link_path" : "https://www.arizona.edu/weather",
    "link_title" : "Weather",
    "external" : 1,
    "expanded" : 0,
    "weight" : 5
  },
  {"mlid":63,
    "parent_id" : 0,
    "menu_name" : "uaqs-header-resources",
    "link_path" : "https://uanews.arizona.edu/",
    "link_title" : "UANews",
    "external" : 1,
    "expanded" : 0,
    "weight" : 6
  },
  {"mlid":64,
    "parent_id" : 0,
    "menu_name" : "uaqs-header-resources",
    "link_path" : "https://uanews.arizona.edu/calendar",
    "link_title" : "Calendar",
    "external" : 1,
    "expanded" : 0,
    "weight" : 7
  },
]
